%YAML 1.1
%TAG !u! tag:unity3d.com,2011:
--- !u!21 &2100000
Material:
  serializedVersion: 6
  m_ObjectHideFlags: 0
  m_PrefabParentObject: {fileID: 0}
  m_PrefabInternal: {fileID: 0}
  m_Name: WB_JohnTemp
  m_Shader: {fileID: 4800000, guid: 024f46258a3994e888def72f97cbb494, type: 3}
  m_ShaderKeywords: AMBIENT_ON BASE_BRDF LDIR_ON NORMAL_EDGETRANSPARENCY ORTHO_OFF
    OUTLINE_BASIC
  m_LightmapFlags: 4
  m_EnableInstancingVariants: 0
  m_DoubleSidedGI: 0
  m_CustomRenderQueue: 3000
  stringTagMap: {}
  disabledShaderPasses: []
  m_SavedProperties:
    serializedVersion: 3
    m_TexEnvs:
    - _BRDF:
        m_Texture: {fileID: 2800000, guid: 43eaaadf432ae4c7f8510f4cb10ad8fb, type: 3}
        m_Scale: {x: 1, y: 1}
        m_Offset: {x: 0, y: 0}
    - _BumpMap:
        m_Texture: {fileID: 0}
        m_Scale: {x: 1, y: 1}
        m_Offset: {x: 0, y: 0}
    - _DecalTex:
        m_Texture: {fileID: 0}
        m_Scale: {x: 1, y: 1}
        m_Offset: {x: 0, y: 0}
    - _DetailAlbedoMap:
        m_Texture: {fileID: 0}
        m_Scale: {x: 1, y: 1}
        m_Offset: {x: 0, y: 0}
    - _DetailMask:
        m_Texture: {fileID: 0}
        m_Scale: {x: 1, y: 1}
        m_Offset: {x: 0, y: 0}
    - _DetailNormalMap:
        m_Texture: {fileID: 0}
        m_Scale: {x: 1, y: 1}
        m_Offset: {x: 0, y: 0}
    - _EmissionMap:
        m_Texture: {fileID: 2800000, guid: f9fbef84b7fb946388792648a785b944, type: 3}
        m_Scale: {x: 1, y: 1}
        m_Offset: {x: 0, y: 0}
    - _LightmapTex:
        m_Texture: {fileID: 0}
        m_Scale: {x: 1, y: 1}
        m_Offset: {x: 0, y: 0}
    - _MainTex:
        m_Texture: {fileID: 2800000, guid: 6f40cee08f1d541629da7924aa1f35f2, type: 3}
        m_Scale: {x: 1, y: 1}
        m_Offset: {x: 0, y: 0}
    - _MasksTex:
        m_Texture: {fileID: 0}
        m_Scale: {x: 1, y: 1}
        m_Offset: {x: 0, y: 0}
    - _MetallicGlossMap:
        m_Texture: {fileID: 0}
        m_Scale: {x: 1, y: 1}
        m_Offset: {x: 0, y: 0}
    - _OcclusionMap:
        m_Texture: {fileID: 0}
        m_Scale: {x: 1, y: 1}
        m_Offset: {x: 0, y: 0}
    - _OutlineTex:
        m_Texture: {fileID: 0}
        m_Scale: {x: 1, y: 1}
        m_Offset: {x: 0, y: 0}
    - _ParallaxMap:
        m_Texture: {fileID: 0}
        m_Scale: {x: 1, y: 1}
        m_Offset: {x: 0, y: 0}
    m_Floats:
    - _AMBIENT: 1
    - _BASE: 1
    - _BRDFBrightness: 0
    - _BumpScale: 1
    - _CUSTOMLIGHTMAP: 0
    - _CUSTOMSHADOW: 0
    - _Cutoff: 0.5
    - _DetailNormalMapScale: 1
    - _DstBlend: 0
    - _EDGETRANSPARENCY: 1
    - _EmissionBakeIntensity: 2
    - _EmissionIntensity: 1
    - _EmissionScaleUI: 0
    - _Glossiness: 0
    - _LDIR: 1
    - _MainTexOpacity: 1
    - _Metallic: 0
    - _Mode: 0
    - _ORTHO: 0
    - _OUTLINE: 0
    - _OcclusionStrength: 1
    - _Outline: 0.006381498
    - _OutlineIntensity: 1
    - _OutlineX: 0.0032926828
    - _OutlineY: 0.0074390243
    - _Parallax: 0.02
    - _REFCUSTOM: 0
    - _RimFresnel: 0.3472222
    - _RimIntensity: 2.0681818
    - _SrcBlend: 1
    - _Transparency: 1
    - _TransparencyFresnel: 0
    - _UVSec: 0
    - _XRAYEDGE: 0
    - _ZWrite: 1
    - _lmUV1: 0
    - _maskTex: 0
    - _mathPixel: 0
    m_Colors:
    - _Color: {r: 1, g: 1, b: 1, a: 1}
    - _DecalColor: {r: 1, g: 1, b: 1, a: 1}
    - _EmissionColor: {r: 1, g: 1, b: 1, a: 0}
    - _EmissionColorUI: {r: 1, g: 1, b: 1, a: 1}
    - _OutlineColor: {r: 0.047920883, g: 0.30882353, b: 0.03860294, a: 0}
    - _RimColor: {r: 1, g: 0, b: 0, a: 0.056179777}
