%YAML 1.1
%TAG !u! tag:unity3d.com,2011:
--- !u!21 &2100000
Material:
  serializedVersion: 6
  m_ObjectHideFlags: 0
  m_PrefabParentObject: {fileID: 0}
  m_PrefabInternal: {fileID: 0}
  m_Name: CFXM4_Glow AB+Add Blue
  m_Shader: {fileID: 4800000, guid: d0cbb1e8abde3d34985dedf3a1c17ce6, type: 3}
  m_ShaderKeywords: 
  m_LightmapFlags: 4
  m_EnableInstancingVariants: 0
  m_DoubleSidedGI: 0
  m_CustomRenderQueue: -1
  stringTagMap: {}
  disabledShaderPasses: []
  m_SavedProperties:
    serializedVersion: 3
    m_TexEnvs:
    - _BumpMap:
        m_Texture: {fileID: 2800000, guid: 0b178db3c9e8755499da46a52e53ce76, type: 3}
        m_Scale: {x: 1, y: 1}
        m_Offset: {x: 0, y: 0}
    - _MainTex:
        m_Texture: {fileID: 2800000, guid: ae87d8ded45ab8b45bce6cfc3695d9c6, type: 3}
        m_Scale: {x: 1, y: 1}
        m_Offset: {x: 0, y: 0}
    - _Mask:
        m_Texture: {fileID: 0}
        m_Scale: {x: 1, y: 1}
        m_Offset: {x: 0, y: 0}
    m_Floats:
    - _InvFade: 0.7322388
    - _TexCoordScrollX: 1
    - _TexCoordScrollY: 1
    m_Colors:
    - _BaseColor: {r: 0.2352941, g: 0.2142465, b: 0.12629758, a: 0.609}
    - _Color: {r: 1, g: 1, b: 1, a: 1}
    - _TintColor: {r: 0.36764705, g: 0.36764705, b: 0.36764705, a: 0.278}
